reaction(
	out(config),
	(	
		completion,
		exo
	),
	(
		inp(config),
		out(gen_self)
	)
).

reaction(
	out(gen_self),
	(	
		completion,
		endo
	),
	(
		inp(gen_self),
		current_source(N @ A : P),
		out(self(N, A, P))
	)
).

may_connect(_, _, _).

reaction(
	out(want_connect(from(N, A, P), to(MyN, MyA, MyP))),
	(	
		completion,
		from_tc,
		exo
	),
	(
		% inp(want_connect(N, A, P)),
		may_connect(N, A, P),
		rdp(self(MyN, MyA, MyP)),
		out(neighbor(N, A, P)),
		N @ A : P ? out(neighbor(MyN, MyA, MyP))
	)
).

% reaction(
	% out(neighbor(N, A, P)),
	% (	
		% invocation,
		% exo
	% ),
	% (
		% rdp(neighbor(N, A, P)),
		% inp(neighbor(N, A, P))
	% )
% ).

reaction(
	out(connect_to(N, A, P)),
	(	
		completion,
		from_agent
	),
	(
		inp(connect_to(N, A, P)),
		rdp(self(MyN, MyA, MyP)),
		N @ A : P ? out(want_connect(from(MyN, MyA, MyP), to(N, A, P)))
	)
).