\relax 
\@writefile{toc}{\contentsline {section}{\numberline {1}Centro di tuple: definizione}{3}}
\@writefile{toc}{\contentsline {section}{\numberline {2}Vicinanza: semantica}{4}}
\@writefile{toc}{\contentsline {section}{\numberline {3}Scenario}{4}}
\@writefile{toc}{\contentsline {section}{\numberline {4}Driver del progetto}{5}}
\@writefile{toc}{\contentsline {section}{\numberline {5}Discovery}{5}}
\@writefile{lol}{\contentsline {lstlisting}{\numberline {1}Astrazione del demone pinger}{5}}
\@writefile{toc}{\contentsline {subsection}{\numberline {5.1}Scenario 1}{5}}
\@writefile{toc}{\contentsline {subsection}{\numberline {5.2}Scenario 2}{6}}
\@writefile{toc}{\contentsline {section}{\numberline {6}Remote discovery}{7}}
\@writefile{toc}{\contentsline {subsection}{\numberline {6.1}REST}{7}}
\@writefile{toc}{\contentsline {subsection}{\numberline {6.2}Perch\`e REST?}{7}}
\@writefile{toc}{\contentsline {subsection}{\numberline {6.3}Document database}{8}}
\@writefile{toc}{\contentsline {subsection}{\numberline {6.4}MongoDB}{9}}
\@writefile{toc}{\contentsline {subsubsection}{\numberline {6.4.1}Vantaggi}{9}}
\@writefile{toc}{\contentsline {subsubsection}{\numberline {6.4.2}Svantaggi}{10}}
\@writefile{toc}{\contentsline {subsubsection}{\numberline {6.4.3}Perch\`e MongoDB?}{10}}
\@writefile{toc}{\contentsline {subsection}{\numberline {6.5}NODEJS}{10}}
\@writefile{toc}{\contentsline {subsubsection}{\numberline {6.5.1}Why NODEJS?}{10}}
\@writefile{toc}{\contentsline {paragraph}{JAVA vs Node.js}{11}}
\@writefile{toc}{\contentsline {section}{\numberline {7}Local and remote addresses}{12}}
\@writefile{toc}{\contentsline {section}{\numberline {8}Deployment del progetto}{13}}
\@writefile{lof}{\contentsline {figure}{\numberline {1}{\ignorespaces Package structure}}{13}}
\@writefile{lof}{\contentsline {figure}{\numberline {2}{\ignorespaces Deployment}}{14}}
\@writefile{toc}{\contentsline {section}{\numberline {9}Debug}{14}}
\@writefile{toc}{\contentsline {section}{\numberline {10}Avvio del sistema}{15}}
\@writefile{toc}{\contentsline {section}{\numberline {11}Problemi}{15}}
\@writefile{toc}{\contentsline {section}{\numberline {12}Sviluppi futuri}{15}}
\@writefile{toc}{\contentsline {section}{\numberline {13}Assunzioni del sistema}{15}}
