\relax 
\providecommand\@newglossary[4]{}
\@newglossary{main}{glg}{gls}{glo}
\providecommand\@glsorder[1]{}
\providecommand\@istfilename[1]{}
\@istfilename{tex.ist}
\@glsorder{word}
\@writefile{toc}{\contentsline {section}{\numberline {1}ACO in MOK}{3}}
\@writefile{toc}{\contentsline {subsection}{\numberline {1.1}Analisi e idea principale}{3}}
\@writefile{toc}{\contentsline {subsection}{\numberline {1.2}Cosa guida la propagazione?}{3}}
\@writefile{toc}{\contentsline {section}{\numberline {2}Progetto}{3}}
\@writefile{toc}{\contentsline {subsection}{\numberline {2.1}Nodi vicini}{3}}
\@writefile{toc}{\contentsline {subsubsection}{\numberline {2.1.1}Discovery di nodi vicini}{3}}
\@writefile{toc}{\contentsline {subsection}{\numberline {2.2}Feromone}{3}}
\@writefile{toc}{\contentsline {subsubsection}{\numberline {2.2.1}Evaporazione}{3}}
\@writefile{toc}{\contentsline {section}{\numberline {3}Implementazione}{3}}
\@writefile{toc}{\contentsline {subsection}{\numberline {3.1}Nodi vicini}{3}}
\@writefile{toc}{\contentsline {subsubsection}{\numberline {3.1.1}Discovery di nodi vicini}{4}}
\@writefile{toc}{\contentsline {subsection}{\numberline {3.2}Spreading example}{4}}
\@writefile{toc}{\contentsline {subsection}{\numberline {3.3}Evaporation example}{5}}
\@writefile{toc}{\contentsline {section}{Glossary}{6}}
